ssthresh,bytesInFlight,cWndAtTheEnd,TimeSpentInRecovery,BytesSentInRecovery,,,Sum
2000,0,2000,0.001903,0,,,1415000
2000,1000,2000,0.62672,2000,,,
2000,1000,2000,0.835648,3000,,,
2000,0,2000,0.118623,0,,,
2000,0,2000,0.003293,0,,,
2000,1000,2000,0.208864,1000,,,
6000,12000,6000,0.234096,12000,,,
2000,0,2000,0.084451,0,,,
2000,0,2000,0.053535,0,,,
2000,1000,2000,0.262146,1000,,,
2000,0,2000,0.079466,0,,,
2000,0,2000,0.057139,0,,,
2000,0,2000,0.08303,0,,,
2000,1000,2000,0.208864,1000,,,
2000,0,2000,0.208864,0,,,
2000,0,2000,0.090779,0,,,
2000,1000,2000,0.217296,2000,,,
2000,1000,2000,0.208864,1000,,,
2000,0,2000,0.100499,0,,,
2000,0,2000,0.100499,0,,,
2000,1000,2000,0.193925,1000,,,
2000,1000,2000,0.208864,1000,,,
2000,0,2000,0.092051,0,,,
2000,0,2000,0.050361,0,,,
2000,0,2000,0.018137,0,,,
2000,1000,2000,0.178318,0,,,
2000,1000,2000,0.260498,1000,,,
5500,11000,5500,0.407712,11000,,,
2000,0,2000,0.035647,0,,,
2000,0,2000,0.033237,0,,,
2000,0,2000,0.062842,0,,,
2000,1000,2000,0.62672,2000,,,
2000,0,2000,0.096975,0,,,
2000,0,2000,0.096975,0,,,
2000,0,2000,0.106627,0,,,
2000,1000,2000,0.208864,1000,,,
2000,0,2000,0.053924,0,,,
2000,1000,2000,0.208864,1000,,,
2000,0,2000,0.097635,0,,,
2000,0,2000,0.102479,0,,,
2000,1000,2000,0.096159,0,,,
2000,0,2000,0.089746,0,,,
2000,1000,2000,0.189999,0,,,
2000,1000,2000,0.208864,1000,,,
2000,0,2000,0.034113,0,,,
2000,1000,2000,0.40936,2000,,,
2000,1000,2000,0.172384,0,,,
2000,0,2000,0.060086,0,,,
2000,0,2000,0.104429,0,,,
2000,0,2000,0.059459,0,,,
2000,0,2000,0.112492,0,,,
2000,1000,2000,0.489521,2000,,,
2000,0,2000,0.072286,0,,,
2000,0,2000,0.080992,0,,,
2000,1000,2000,0.304613,1000,,,
2000,0,2000,0.084618,0,,,
2000,1000,2000,0.208864,1000,,,
2000,0,2000,0.078784,0,,,
2000,1000,2000,0.417792,2000,,,
6500,13000,6500,0.650722,23000,,,
2000,1000,2000,0.208864,1000,,,
2000,0,2000,0.093914,0,,,
2000,1000,2000,0.441474,2000,,,
2000,1000,2000,0.62672,2000,,,
2000,1000,2000,0.748405,1000,,,
2000,1000,2000,0.208864,1000,,,
2000,1000,2000,0.208864,1000,,,
2000,0,2000,0.208864,0,,,
2000,0,2000,0.096948,0,,,
2000,1000,2000,0.282877,0,,,
6000,12000,6000,0.713589,17000,,,
2000,1000,2000,0.494689,0,,,
2000,1000,2000,0.141948,1000,,,
2000,1000,2000,0.208864,1000,,,
2000,1000,2000,0.208864,1000,,,
2000,0,2000,0.073562,0,,,
2000,0,2000,0.039062,0,,,
5500,11000,5500,0.669053,16000,,,
2000,0,2000,0.187009,0,,,
2000,1000,2000,0.203897,1000,,,
9500,19000,9500,0.401056,24000,,,
7500,15000,7500,0.434656,20000,,,
2000,0,2000,0.208864,0,,,
5500,11000,5500,0.225664,11000,,,
7500,15000,7500,0.225728,15000,,,
2000,0,2000,0.006721,0,,,
2000,1000,2000,0.208864,1000,,,
2000,1000,2000,0.208864,1000,,,
2000,0,2000,0.059176,0,,,
2000,1000,2000,0.150607,1000,,,
2000,1000,2000,0.208864,1000,,,
2000,0,2000,0.100553,0,,,
2000,0,2000,0.016412,0,,,
2000,0,2000,0.033667,0,,,
2000,0,2000,0.094289,0,,,
2000,0,2000,0.080714,0,,,
6500,13000,6500,0.897463,26000,,,
2000,1000,2000,0.869297,4000,,,
2000,1000,2000,0.157228,1000,,,
2000,1000,2000,0.208864,1000,,,
2000,0,2000,0.045911,0,,,
2000,0,2000,0.103292,0,,,
2000,0,2000,0.022815,0,,,
2000,0,2000,0.111731,0,,,
2000,1000,2000,0.426961,3000,,,
2000,1000,2000,0.173233,1000,,,
2000,0,2000,0.105887,0,,,
2000,0,2000,0.063429,0,,,
2000,1000,2000,0.745007,3000,,,
2000,0,2000,0.070327,0,,,
2000,0,2000,0.086993,0,,,
2000,1000,2000,0.65955,3000,,,
2000,1000,2000,0.208864,1000,,,
2000,0,2000,0.073638,0,,,
7000,14000,7000,0.61848,19000,,,
5000,10000,5000,0.465484,10000,,,
2000,0,2000,0.075061,0,,,
2000,0,2000,0.0445,0,,,
2000,1000,2000,0.070988,1000,,,
7000,14000,7000,0.25952,13000,,,
2000,1000,2000,0.208864,1000,,,
2000,0,2000,0.061586,0,,,
2000,0,2000,0.087691,0,,,
2000,1000,2000,0.141715,1000,,,
2000,0,2000,0.057953,0,,,
2000,0,2000,0.096765,0,,,
2000,1000,2000,0.164103,0,,,
6500,13000,6500,0.434656,15000,,,
9000,18000,9000,0.265822,16000,,,
2000,1000,2000,0.19598,0,,,
2000,0,2000,0.217296,1000,,,
2000,0,2000,0.013997,0,,,
2000,1000,2000,0.121637,0,,,
2000,0,2000,0.039926,0,,,
2000,1000,2000,0.185567,1000,,,
2000,1000,2000,0.208864,1000,,,
2000,1000,2000,0.208864,1000,,,
2000,1000,2000,0.208864,1000,,,
2000,1000,2000,0.208864,1000,,,
2000,1000,2000,0.081061,0,,,
2000,0,2000,0.07457,0,,,
2000,1000,2000,0.800957,2000,,,
7500,15000,7500,0.242528,15000,,,
2000,1000,2000,0.208864,1000,,,
8000,16000,8000,0.384064,18000,,,
6500,13000,6500,0.208864,13000,,,
5500,11000,5500,0.672279,13000,,,
6500,13000,6500,0.294995,13000,,,
2000,1000,2000,0.208864,1000,,,
2000,0,2000,0.05665,0,,,
2000,0,2000,0.089525,0,,,
2000,0,2000,0.009961,0,,,
2000,0,2000,0.257838,1000,,,
2000,0,2000,0.035909,0,,,
2000,1000,2000,0.504896,0,,,
2000,0,2000,0.028652,0,,,
2000,0,2000,0.108417,0,,,
2000,1000,2000,0.200432,0,,,
6000,12000,6000,0.827344,15000,,,
5500,11000,5500,0.662387,16000,,,
6500,13000,6500,0.434784,15000,,,
2000,0,2000,0.0124,0,,,
2000,1000,2000,0.406634,1000,,,
2000,0,2000,0.018232,0,,,
2000,1000,2000,0.178915,0,,,
2000,1000,2000,0.845059,1000,,,
2000,0,2000,0.038163,0,,,
2000,1000,2000,0.835648,3000,,,
2000,1000,2000,0.318316,2000,,,
2000,0,2000,0.088329,0,,,
2000,0,2000,0.022693,0,,,
2000,0,2000,0.06918,0,,,
2000,1000,2000,0.174364,1000,,,
2000,1000,2000,0.867222,4000,,,
2000,1000,2000,0.480676,1000,,,
2000,0,2000,0.073695,0,,,
2000,0,2000,0.297705,0,,,
2000,1000,2000,0.208864,1000,,,
2000,0,2000,0.045009,0,,,
5000,10000,5000,0.225728,9000,,,
2000,1000,2000,0.208864,1000,,,
2000,0,2000,0.04017,0,,,
2000,0,2000,0.208864,0,,,
2000,0,2000,0.092499,0,,,
2000,0,2000,0.027239,0,,,
2000,1000,2000,0.484551,1000,,,
2000,0,2000,0.042043,0,,,
2000,1000,2000,0.432941,2000,,,
2000,0,2000,0.092694,0,,,
2000,0,2000,0.027697,0,,,
5500,11000,5500,0.375568,11000,,,
2000,1000,2000,0.507998,2000,,,
2000,1000,2000,0.14494,0,,,
2000,0,2000,0.091143,0,,,
2000,1000,2000,0.203131,1000,,,
2000,1000,2000,0.208864,1000,,,
2000,0,2000,0.061015,0,,,
2000,1000,2000,0.00234,0,,,
2000,0,2000,0.027756,0,,,
5500,11000,5500,0.652016,17000,,,
2000,1000,2000,0.208864,1000,,,
2000,1000,2000,0.476359,1000,,,
2000,1000,2000,0.022311,0,,,
2000,1000,2000,0.208864,1000,,,
2000,1000,2000,0.104944,1000,,,
2000,0,2000,0.060796,0,,,
2000,1000,2000,0.119172,0,,,
2000,1000,2000,0.278375,2000,,,
2000,0,2000,0.053373,0,,,
9500,19000,9500,0.276384,19000,,,
2000,0,2000,0.073685,0,,,
2000,1000,2000,0.011313,0,,,
2000,0,2000,0.093269,0,,,
7000,14000,7000,0.225728,13000,,,
2000,0,2000,0.051588,0,,,
2000,1000,2000,0.89988,3000,,,
2000,1000,2000,0.208864,0,,,
2000,0,2000,0.088502,0,,,
2000,0,2000,0.088502,0,,,
2000,1000,2000,0.208864,1000,,,
2000,0,2000,0.031278,0,,,
2000,0,2000,0.097752,0,,,
2000,0,2000,0.097752,0,,,
2000,1000,2000,0.00305,0,,,
2000,1000,2000,0.208864,1000,,,
2000,1000,2000,0.208864,1000,,,
2000,0,2000,0.075218,0,,,
2000,1000,2000,0.16126,0,,,
2000,1000,2000,0.208864,1000,,,
2000,0,2000,0.099756,0,,,
2000,0,2000,0.095195,0,,,
2000,1000,2000,0.129081,0,,,
2000,0,2000,0.208864,0,,,
2000,0,2000,0.096066,0,,,
2000,1000,2000,0.182137,0,,,
2000,0,2000,0.068236,0,,,
2000,1000,2000,0.115392,0,,,
2000,1000,2000,0.217296,2000,,,
2000,0,2000,0.171611,0,,,
2000,1000,2000,0.208864,1000,,,
2000,1000,2000,0.208864,1000,,,
2000,0,2000,0.026303,0,,,
9500,19000,9500,0.276384,20000,,,
2000,1000,2000,0.120592,0,,,
7000,14000,7000,0.443152,17000,,,
2000,0,2000,0.049037,0,,,
2000,1000,2000,0.204449,0,,,
2000,1000,2000,0.208864,1000,,,
2000,0,2000,0.033499,0,,,
2000,0,2000,0.090597,0,,,
2000,1000,2000,0.208864,1000,,,
2000,1000,2000,0.208864,1000,,,
6500,13000,6500,0.259456,13000,,,
2000,0,2000,0.172931,0,,,
2000,0,2000,0.147749,0,,,
2000,1000,2000,0.094923,0,,,
2000,1000,2000,0.397131,1000,,,
2000,1000,2000,0.208864,1000,,,
2000,1000,2000,0.198991,0,,,
2000,1000,2000,0.088194,0,,,
2000,0,2000,0.208864,0,,,
2000,0,2000,0.039763,0,,,
2000,1000,2000,0.133075,1000,,,
2000,0,2000,0.083156,0,,,
2000,1000,2000,0.178505,1000,,,
2000,0,2000,0.032086,0,,,
2000,1000,2000,0.208864,1000,,,
2000,0,2000,0.092045,0,,,
2000,1000,2000,0.208864,1000,,,
2000,1000,2000,0.042258,0,,,
6500,13000,6500,0.293248,13000,,,
7000,14000,7000,0.582197,20000,,,
2000,1000,2000,0.060748,0,,,
5500,11000,5500,0.58456,13000,,,
2000,0,2000,0.208864,0,,,
2000,1000,2000,0.208864,0,,,
2000,1000,2000,0.208864,1000,,,
2000,0,2000,0.002987,0,,,
2000,1000,2000,0.208864,1000,,,
2000,1000,2000,0.208864,1000,,,
2000,1000,2000,0.217296,2000,,,
2000,1000,2000,0.208864,1000,,,
2000,0,2000,0.022718,0,,,
7000,14000,7000,0.41792,16000,,,
2000,1000,2000,0.208864,1000,,,
2000,1000,2000,0.116504,0,,,
2000,1000,2000,0.40936,2000,,,
2000,1000,2000,0.208864,1000,,,
2000,1000,2000,0.208864,1000,,,
2000,1000,2000,0.174454,0,,,
2000,0,2000,0.073483,0,,,
2000,1000,2000,0.208864,1000,,,
2000,1000,2000,0.056833,0,,,
2000,1000,2000,0.208864,1000,,,
2000,1000,2000,0.208864,1000,,,
2000,0,2000,0.03795,0,,,
2000,0,2000,0.080894,0,,,
2000,1000,2000,0.406227,1000,,,
2000,1000,2000,0.208864,1000,,,
2000,0,2000,0.083867,0,,,
2000,0,2000,0.056331,0,,,
2000,1000,2000,0.208864,0,,,
5000,10000,5000,0.392432,13000,,,
6000,12000,6000,0.417792,15000,,,
2000,0,2000,0.020506,0,,,
2000,1000,2000,0.835648,3000,,,
2000,0,2000,0.098871,0,,,
2000,0,2000,0.093559,0,,,
2000,1000,2000,0.417792,2000,,,
2000,0,2000,0.025924,0,,,
2000,1000,2000,0.188951,1000,,,
2000,0,2000,0.05864,0,,,
2000,1000,2000,0.396906,1000,,,
2000,1000,2000,0.208864,1000,,,
2000,1000,2000,0.188447,1000,,,
2000,1000,2000,0.208864,0,,,
2000,0,2000,0.000242,0,,,
8500,17000,8500,0.358704,17000,,,
2000,1000,2000,0.00488,0,,,
2000,0,2000,0.07806,0,,,
2000,0,2000,0.076678,0,,,
2000,1000,2000,0.208864,1000,,,
2000,1000,2000,0.208864,0,,,
2000,1000,2000,0.208864,1000,,,
2000,0,2000,0.108202,0,,,
2000,0,2000,0.0421,0,,,
2000,0,2000,0.072943,0,,,
2000,1000,2000,0.208864,0,,,
2000,0,2000,0.083467,0,,,
2000,0,2000,0.083467,0,,,
6500,13000,6500,0.63528,19000,,,
2000,0,2000,0.024902,0,,,
2000,0,2000,0.088493,0,,,
2000,1000,2000,0.208864,1000,,,
2000,1000,2000,0.182664,1000,,,
2000,0,2000,0.086485,0,,,
2000,1000,2000,0.208864,1000,,,
2000,0,2000,0.10528,0,,,
2000,1000,2000,0.936106,4000,,,
2000,1000,2000,0.204219,1000,,,
2000,1000,2000,0.40936,2000,,,
2000,0,2000,0.115302,0,,,
2000,1000,2000,0.119337,1000,,,
2000,1000,2000,0.27507,0,,,
2000,1000,2000,0.342365,0,,,
2000,1000,2000,0.835648,3000,,,
6500,13000,6500,10.0034,32000,,,
2000,0,2000,0.208864,0,,,
2000,0,2000,0.208864,0,,,
2000,1000,2000,1.10146,0,,,
2000,1000,2000,0.208864,1000,,,
2000,0,2000,0.176571,0,,,
2000,0,2000,0.068545,0,,,
2000,0,2000,0.017353,0,,,
2000,0,2000,0.07876,0,,,
2000,1000,2000,0.208864,1000,,,
2000,1000,2000,0.208864,1000,,,
2000,1000,2000,0.208864,1000,,,
2000,1000,2000,0.098031,1000,,,
2000,1000,2000,0.818934,3000,,,
2000,1000,2000,0.208864,1000,,,
2000,0,2000,0.065173,0,,,
2000,0,2000,0.061466,0,,,
2000,1000,2000,0.355852,1000,,,
5000,10000,5000,0.434784,10000,,,
2000,0,2000,0.052317,0,,,
2000,1000,2000,0.20051,0,,,
2000,1000,2000,0.521596,2000,,,
2000,1000,2000,0.094521,0,,,
2000,0,2000,0.085821,0,,,
2000,0,2000,0.208864,0,,,
2000,1000,2000,0.208864,1000,,,
2000,0,2000,0.094469,0,,,
2000,0,2000,0.096746,0,,,
2000,1000,2000,0.183302,1000,,,
2000,0,2000,0.055368,0,,,
2000,0,2000,0.055368,0,,,
2000,0,2000,0.105114,0,,,
2000,0,2000,0.102383,0,,,
2000,1000,2000,0.208864,1000,,,
2000,1000,2000,0.208864,1000,,,
6000,12000,6000,0.672448,22000,,,
2000,1000,2000,0.208864,1000,,,
2000,0,2000,0.059284,0,,,
2000,0,2000,0.093216,0,,,
2000,1000,2000,0.208864,1000,,,
2000,1000,2000,0.208864,1000,,,
2000,1000,2000,0.164311,1000,,,
2000,1000,2000,0.208864,1000,,,
2000,1000,2000,0.208864,1000,,,
2000,1000,2000,0.82142,3000,,,
2000,1000,2000,0.176892,0,,,
2000,1000,2000,0.105998,0,,,
2000,1000,2000,0.208864,1000,,,
2000,1000,2000,0.208864,1000,,,
6500,13000,6500,0.322048,15000,,,
2000,1000,2000,0.208864,1000,,,
2000,1000,2000,0.280084,2000,,,
2000,1000,2000,0.037613,0,,,
7500,15000,7500,0.25952,15000,,,
2000,1000,2000,0.208864,1000,,,
2000,0,2000,0.071493,0,,,
2000,1000,2000,0.208864,1000,,,
2000,0,2000,0.073954,0,,,
2000,0,2000,0.103831,0,,,
2000,0,2000,0.095943,0,,,
2000,0,2000,0.100065,0,,,
2000,1000,2000,0.029921,0,,,
2000,1000,2000,0.184272,1000,,,
5000,10000,5000,0.626848,14000,,,
2000,1000,2000,7.88964,0,,,
2000,0,2000,0.19132,0,,,
2000,1000,2000,0.208864,1000,,,
2000,0,2000,0.043323,0,,,
2000,1000,2000,0.930078,2000,,,
2000,0,2000,0.092039,0,,,
2000,1000,2000,0.043323,1000,,,
2000,1000,2000,0.139394,1000,,,
5000,10000,5000,0.426288,11000,,,
2000,1000,2000,0.19093,0,,,
5500,11000,5500,0.434784,11000,,,
2000,1000,2000,7.95075,6000,,,
2000,1000,2000,0.208864,1000,,,
2000,1000,2000,0.208864,1000,,,
2000,0,2000,0.241412,1000,,,
2000,0,2000,0.079921,0,,,
2000,1000,2000,0.915823,4000,,,
2000,0,2000,0.049034,0,,,
2000,1000,2000,0.208864,1000,,,
2000,1000,2000,0.208864,1000,,,
2000,1000,2000,0.208864,1000,,,
2000,0,2000,0.051842,0,,,
2000,1000,2000,0.208864,1000,,,
2000,0,2000,0.078141,0,,,
2000,1000,2000,0.208864,1000,,,
5000,10000,5000,0.217232,10000,,,
2000,0,2000,0.089024,0,,,
2000,1000,2000,0.30379,1000,,,
2000,0,2000,0.075326,0,,,
2000,1000,2000,0.28715,1000,,,
2000,0,2000,0.089566,0,,,
2000,0,2000,0.095813,0,,,
2000,0,2000,0.082345,0,,,
2000,1000,2000,0.930241,2000,,,
2000,0,2000,0.098633,0,,,
2000,1000,2000,0.252679,0,,,
2000,0,2000,0.089966,0,,,
2000,1000,2000,0.208864,1000,,,
2000,0,2000,0.084506,0,,,
2000,1000,2000,0.208864,1000,,,
2000,1000,2000,0.217296,2000,,,
8500,17000,8500,0.242528,17000,,,
2000,1000,2000,0.197397,0,,,
2000,1000,2000,0.235385,0,,,
2000,1000,2000,0.208864,1000,,,
2000,1000,2000,0.436445,0,,,
2000,1000,2000,0.165057,1000,,,
2000,0,2000,0.073312,0,,,
2000,1000,2000,0.208864,1000,,,
2000,1000,2000,0.002691,0,,,
2000,0,2000,0.05741,0,,,
2000,0,2000,0.05741,0,,,
6000,12000,6000,0.386,17000,,,
2000,1000,2000,0.238092,0,,,
2000,0,2000,0.101818,0,,,
2000,0,2000,0.11198,0,,,
2000,1000,2000,0.860643,4000,,,
2000,1000,2000,0.208436,1000,,,
2000,0,2000,0.072108,0,,,
2000,0,2000,0.08054,0,,,
2000,1000,2000,0.25751,0,,,
2000,0,2000,0.057078,0,,,
2000,1000,2000,0.919676,3000,,,
2000,0,2000,0.070801,0,,,
2000,1000,2000,0.208864,1000,,,
2000,0,2000,0.208864,0,,,
2000,0,2000,0.098641,0,,,
2000,0,2000,0.007026,0,,,
5000,10000,5000,0.680015,14000,,,
2000,0,2000,0.083203,0,,,
2000,0,2000,0.065363,0,,,
2000,0,2000,0.023184,0,,,
2000,1000,2000,0.088701,0,,,
2000,0,2000,0.014417,0,,,
2000,0,2000,0.026007,0,,,
2000,0,2000,0.099556,0,,,
2000,0,2000,0.069203,0,,,
2000,0,2000,0.031644,0,,,
2000,0,2000,0.07098,0,,,
2000,0,2000,0.062317,0,,,
2000,0,2000,0.098752,0,,,
2000,0,2000,0.019692,0,,,
2000,1000,2000,0.217296,2000,,,
5500,11000,5500,0.40936,11000,,,
2000,1000,2000,0.165438,1000,,,
2000,0,2000,0.10167,0,,,
2000,1000,2000,0.208864,1000,,,
2000,1000,2000,0.315311,1000,,,
2000,0,2000,0.081131,0,,,
2000,1000,2000,0.208864,1000,,,
2000,0,2000,0.060271,0,,,
2000,0,2000,0.107636,0,,,
2000,0,2000,0.033344,0,,,
2000,1000,2000,0.157234,0,,,
2000,1000,2000,0.208864,1000,,,
2000,1000,2000,0.097768,1000,,,
5500,11000,5500,0.400928,11000,,,
2000,1000,2000,0.208864,1000,,,
2000,0,2000,0.04491,0,,,
2000,1000,2000,0.101309,0,,,
2000,0,2000,0.04693,0,,,
2000,0,2000,0.080333,0,,,
2000,1000,2000,0.181171,1000,,,
7500,15000,7500,0.669072,22000,,,
2000,0,2000,0.100793,0,,,
2000,0,2000,0.06214,0,,,
2000,0,2000,0.09947,0,,,
2000,0,2000,0.09947,0,,,
6000,12000,6000,0.208864,12000,,,
2000,1000,2000,0.299329,0,,,
2000,1000,2000,0.178921,1000,,,
2000,1000,2000,0.230265,1000,,,
2000,0,2000,0.039773,0,,,
2000,0,2000,0.09405,0,,,
2000,0,2000,0.09405,0,,,
2000,0,2000,0.08844,0,,,
2000,0,2000,0.046134,0,,,
2000,0,2000,0.064659,0,,,
2000,1000,2000,0.154753,0,,,
2000,0,2000,0.208864,0,,,
2000,0,2000,0.05828,0,,,
2000,1000,2000,0.029458,1000,,,
2000,1000,2000,0.208864,1000,,,
2000,1000,2000,0.208864,1000,,,
2000,0,2000,0.085342,0,,,
2000,0,2000,0.000134,0,,,
2000,0,2000,0.208864,0,,,
2000,1000,2000,0.208864,1000,,,
2000,0,2000,0.124444,0,,,
2000,1000,2000,0.413626,1000,,,
2000,0,2000,0.07448,0,,,
2000,1000,2000,0.098957,0,,,
2000,0,2000,0.208864,0,,,
2000,1000,2000,0.181448,1000,,,
2000,0,2000,0.063494,0,,,
2000,1000,2000,0.208864,1000,,,
2000,0,2000,0.076903,0,,,
2000,0,2000,0.076903,0,,,
2000,0,2000,0.109879,0,,,
6500,13000,6000,0.434784,12000,,,
2000,1000,2000,0.073312,1000,,,
2000,0,2000,0.033989,0,,,
2000,0,2000,0.082448,0,,,
2000,1000,2000,0.208864,1000,,,
2000,1000,2000,0.208864,1000,,,
2000,0,2000,0.097595,0,,,
2000,0,2000,0.100916,0,,,
2000,0,2000,0.100154,0,,,
2000,1000,2000,0.208864,1000,,,
2000,1000,2000,0.208864,1000,,,
2000,0,2000,0.104333,0,,,
2000,1000,2000,0.208864,1000,,,
2000,1000,2000,0.935325,1000,,,
2000,0,2000,0.10188,0,,,
2000,0,2000,0.103239,0,,,
2000,1000,2000,0.09196,0,,,
2000,1000,2000,0.187838,1000,,,
2000,0,2000,0.080677,0,,,
2000,1000,2000,0.152389,1000,,,
8000,16000,8000,0.259392,16000,,,
2000,1000,2000,0.208864,1000,,,
2000,1000,2000,0.205288,1000,,,
2000,1000,2000,0.208864,1000,,,
2000,0,2000,0.094499,0,,,
2000,1000,2000,0.937342,4000,,,
2000,0,2000,0.101694,0,,,
2000,1000,2000,0.029754,0,,,
2000,1000,2000,0.208864,1000,,,
2000,1000,2000,0.40936,2000,,,
2000,1000,2000,0.208864,1000,,,
2000,1000,2000,0.208864,1000,,,
2000,0,2000,0.07267,0,,,
2000,0,2000,0.07267,0,,,
6000,12000,6000,0.459952,16000,,,
2000,0,2000,0.187043,0,,,
2000,1000,2000,0.47905,0,,,
2000,0,2000,0.069005,0,,,
2000,0,2000,0.239022,0,,,
2000,1000,2000,0.158091,0,,,
2000,0,2000,0.033334,0,,,
2000,0,2000,0.086829,0,,,
2000,1000,2000,0.208864,1000,,,
2000,0,2000,0.106802,0,,,
2000,0,2000,0.096264,0,,,
2000,1000,2000,0.208864,0,,,
2000,0,2000,0.09556,0,,,
2000,0,2000,0.063911,0,,,
2000,1000,2000,0.208864,1000,,,
2000,0,2000,0.105689,0,,,
2000,1000,2000,0.208864,1000,,,
2000,0,2000,0.005517,0,,,
2000,0,2000,0.049597,0,,,
2000,0,2000,0.046347,0,,,
2000,0,2000,0.054779,0,,,
2000,1000,2000,0.15584,0,,,
2000,0,2000,0.018535,0,,,
2000,0,2000,0.085772,0,,,
2000,0,2000,0.208864,0,,,
2000,0,2000,0.208864,0,,,
2000,1000,2000,0.208864,1000,,,
2000,1000,2000,0.208864,1000,,,
2000,1000,2000,0.208864,1000,,,
2000,0,2000,0.0092,0,,,
8500,17000,8500,0.242528,17000,,,
2000,1000,2000,0.071313,0,,,
2000,0,2000,0.056441,0,,,
2000,1000,2000,0.208864,1000,,,
2000,0,2000,0.070521,0,,,
2000,1000,2000,0.834807,2000,,,
2000,0,2000,0.104007,0,,,
2000,0,2000,0.06265,0,,,
2000,1000,2000,0.208864,1000,,,
2000,0,2000,0.080388,0,,,
2000,1000,2000,0.208864,1000,,,
2000,1000,2000,0.208864,1000,,,
2000,1000,2000,0.439287,1000,,,
2000,1000,2000,0.040755,0,,,
2000,1000,2000,0.310684,1000,,,
7000,14000,7000,0.695491,19000,,,
2000,1000,2000,0.041635,0,,,
2000,0,2000,0.083581,0,,,
2000,1000,2000,0.417296,1000,,,
2000,1000,2000,0.208864,1000,,,
2000,1000,2000,0.166355,1000,,,
2000,1000,2000,0.161273,0,,,
2000,1000,2000,0.208864,1000,,,
2000,0,2000,0.049078,0,,,
2000,0,2000,0.095742,0,,,
2000,0,2000,0.014741,0,,,
2000,0,2000,0.093379,0,,,
2000,0,2000,0.100066,0,,,
7000,14000,7000,0.618416,19000,,,
6500,13000,6500,0.384128,13000,,,
6500,13000,6500,0.417664,14000,,,
2000,1000,2000,0.835648,3000,,,
2000,0,2000,0.021577,0,,,
2000,0,2000,0.052794,0,,,
2000,0,2000,0.067269,0,,,
2000,1000,2000,0.208864,1000,,,
2000,1000,2000,0.208864,1000,,,
2000,0,2000,0.208864,0,,,
9500,19000,9500,0.251088,19000,,,
2000,0,2000,0.069799,0,,,
2000,0,2000,0.078231,0,,,
2000,0,2000,0.04655,0,,,
2000,0,2000,0.015404,0,,,
2000,1000,2000,0.076205,0,,,
2000,1000,2000,0.171218,1000,,,
2000,0,2000,0.099596,0,,,
2000,0,2000,0.096758,0,,,
2000,0,2000,0.097019,0,,,
2000,0,2000,0.095912,0,,,
2000,1000,2000,0.944059,4000,,,
2000,0,2000,0.104711,0,,,
2000,1000,2000,0.417792,2000,,,
2000,0,2000,0.208864,0,,,
6000,12000,6000,0.316608,12000,,,
2000,0,2000,0.163897,0,,,
2000,0,2000,0.092086,0,,,
2000,1000,2000,0.208864,0,,,
2000,0,2000,0.071611,0,,,
2000,1000,2000,8E-05,0,,,
2000,0,2000,0.062562,0,,,
2000,0,2000,0.075717,0,,,
2000,0,2000,0.189775,0,,,
9500,19000,9500,0.485312,22000,,,
5500,11000,5500,0.399216,10000,,,
2000,1000,2000,0.824549,3000,,,
2000,0,2000,0.050658,0,,,
2000,0,2000,0.057772,0,,,
2000,0,2000,0.033818,0,,,
2000,0,2000,0.064199,0,,,
2000,1000,2000,0.15925,0,,,
2000,1000,2000,0.208864,1000,,,
2000,0,2000,0.046735,0,,,
2000,0,2000,0.054879,0,,,
2000,1000,2000,0.237555,1000,,,
2000,1000,2000,0.208864,1000,,,
2000,1000,2000,0.110094,1000,,,
2000,1000,2000,0.144841,1000,,,
2000,1000,2000,0.284456,1000,,,
2000,1000,2000,0.90363,4000,,,
2000,0,2000,0.14414,0,,,
2000,0,2000,0.065315,0,,,
2000,1000,2000,0.208864,0,,,
2000,0,2000,0.004435,0,,,
7000,14000,7000,0.276384,15000,,,
6000,12000,6000,0.208864,12000,,,
5000,10000,5000,0.217232,6000,,,
2000,0,2000,0.217296,1000,,,
2000,1000,2000,1.46706,0,,,
2000,0,2000,0.208864,0,,,
2000,0,2000,0.1426,0,,,
2000,1000,2000,0.163109,1000,,,
2000,1000,2000,0.138204,1000,,,
2000,0,2000,0.062835,0,,,
2000,1000,2000,0.208864,1000,,,
2000,1000,2000,0.208864,1000,,,
2000,0,2000,0.012554,0,,,
2000,0,2000,0.053269,0,,,
2000,1000,2000,0.62672,2000,,,
2000,1000,2000,0.85431,2000,,,
2000,1000,2000,0.096209,1000,,,
2000,1000,2000,0.208864,1000,,,
2000,0,2000,0.078718,0,,,
2000,1000,2000,0.194561,0,,,
2000,1000,2000,0.789687,3000,,,
2000,0,2000,0.077961,0,,,
2000,0,2000,0.089103,0,,,
2000,0,2000,0.053565,0,,,
2000,1000,2000,0.115416,1000,,,
2000,0,2000,0.078688,0,,,
2000,0,2000,0.022371,0,,,
2000,1000,2000,0.151759,1000,,,
