ssthresh,bytesInFlight,cWndAtTheEnd,TimeSpentInRecovery,BytesSentInRecovery,,,Sum
2000,2000,2000,0.208864,2000,,,594000
2000,2000,3000,0.138464,0,,,
2000,2000,2000,0.890241,2000,,,
2000,2000,2000,0.208864,2000,,,
2000,2000,2000,0.843222,2000,,,
2000,2000,2000,0.208864,2000,,,
2000,2000,2000,0.417792,2000,,,
2000,2000,2000,0.208864,2000,,,
2000,2000,2000,0.225792,2000,,,
2000,2000,2000,0.208864,2000,,,
2000,2000,2000,0.208864,2000,,,
2000,2000,2000,0.208864,2000,,,
2000,2000,3000,0.110839,0,,,
2000,2000,2000,0.208864,2000,,,
2000,2000,2000,0.208864,2000,,,
2000,2000,2000,0.417792,4000,,,
2000,2000,2000,0.208864,2000,,,
2000,2000,2000,0.454607,3000,,,
2000,2000,3000,0.109053,0,,,
2000,2000,2000,0.835648,4000,,,
2000,2000,2000,0.809303,3000,,,
2000,2000,3000,0.148423,0,,,
2000,2000,2000,0.520932,2000,,,
2000,2000,2000,0.252138,2000,,,
2000,2000,2000,0.217296,1000,,,
2000,2000,2000,0.454247,4000,,,
2000,2000,2000,0.208864,2000,,,
2000,2000,2000,0.655347,3000,,,
2000,2000,2000,0.208864,2000,,,
2000,2000,2000,0.208864,2000,,,
2000,2000,2000,0.208864,2000,,,
2000,2000,2000,0.208864,2000,,,
2000,2000,3000,0.166834,0,,,
2000,2000,2000,0.208864,1000,,,
2000,2000,2000,0.208864,2000,,,
2000,2000,2000,0.45118,4000,,,
2000,2000,2000,0.195637,1000,,,
2000,2000,2000,0.208864,2000,,,
2000,2000,2000,0.208864,2000,,,
2000,2000,2000,0.208864,2000,,,
2000,2000,2000,0.208864,2000,,,
2000,2000,2000,0.440874,1000,,,
2000,2000,2000,0.208864,2000,,,
2000,2000,2000,0.208864,2000,,,
2000,2000,2000,0.208864,2000,,,
2000,2000,2000,0.227456,2000,,,
2000,2000,2000,0.208864,2000,,,
2000,2000,2000,0.208864,2000,,,
2000,2000,2000,0.208864,2000,,,
2000,2000,2000,0.426086,2000,,,
2000,2000,2000,0.777707,3000,,,
2000,2000,2000,0.345147,2000,,,
2000,2000,2000,0.208864,2000,,,
2000,2000,2000,0.382377,1000,,,
2000,2000,2000,0.208864,2000,,,
2000,2000,3000,0.170099,0,,,
2000,2000,2000,0.208864,2000,,,
2000,2000,3000,0.170929,0,,,
2000,2000,2000,0.410783,1000,,,
2000,2000,2000,0.835648,4000,,,
2000,2000,2000,0.426224,4000,,,
2000,2000,2000,0.208864,2000,,,
2000,2000,3000,0.107012,0,,,
2000,2000,2000,0.409424,2000,,,
2000,2000,2000,0.208864,2000,,,
2000,2000,2000,0.835648,4000,,,
2000,2000,2000,0.936804,2000,,,
2000,2000,2000,0.956347,4000,,,
2000,2000,2000,0.454319,3000,,,
2000,2000,2000,0.899207,3000,,,
2000,2000,2000,0.837391,5000,,,
2000,2000,2000,0.289437,2000,,,
2000,2000,2000,0.208864,2000,,,
2000,2000,2000,0.208864,2000,,,
2000,2000,2000,0.208864,2000,,,
2000,2000,2000,0.208864,2000,,,
2000,2000,2000,0.274848,1000,,,
2000,2000,2000,0.939762,2000,,,
2000,2000,2000,0.371551,2000,,,
2000,2000,2000,0.208864,2000,,,
2000,2000,2000,0.208864,2000,,,
2000,2000,2000,0.208864,2000,,,
2000,2000,3000,0.206751,0,,,
2000,2000,2000,0.208864,2000,,,
2000,2000,2000,0.702582,4000,,,
2000,2000,2000,0.208864,2000,,,
2000,2000,2000,0.409424,2000,,,
2000,2000,2000,0.234032,3000,,,
2000,2000,2000,0.208864,2000,,,
2000,2000,2000,0.208864,2000,,,
2000,2000,2000,0.409424,2000,,,
2000,2000,2000,0.208864,2000,,,
2000,2000,2000,0.217296,1000,,,
2000,2000,3000,0.349538,0,,,
2000,2000,2000,0.208864,2000,,,
2000,2000,2000,0.478648,1000,,,
2000,2000,2000,0.409424,1000,,,
2000,2000,2000,0.835648,4000,,,
2000,2000,2000,0.208864,1000,,,
2000,2000,2000,0.926752,5000,,,
2000,2000,2000,0.208864,2000,,,
2000,2000,2000,0.208864,2000,,,
2000,2000,2000,0.208864,2000,,,
2000,2000,2000,0.208864,1000,,,
2000,2000,2000,0.425728,2000,,,
2000,2000,2000,0.392146,2000,,,
2000,2000,3000,0.184077,0,,,
2000,2000,2000,0.208864,2000,,,
2000,2000,2000,0.208864,2000,,,
2000,2000,2000,0.40936,3000,,,
2000,2000,2000,3.04799,1000,,,
2000,2000,2000,0.28963,2000,,,
2000,2000,2000,0.409424,2000,,,
2000,2000,2000,0.351517,2000,,,
2000,2000,2000,0.372907,2000,,,
2000,2000,2000,0.197103,1000,,,
2000,2000,2000,0.745282,4000,,,
2000,2000,2000,0.208864,2000,,,
2000,2000,2000,0.208864,2000,,,
2000,2000,2000,0.40936,2000,,,
2000,2000,2000,0.62672,3000,,,
2000,2000,2000,0.225728,3000,,,
2000,2000,2000,0.208864,2000,,,
2000,2000,2000,1.04451,5000,,,
2000,2000,2000,0.457215,3000,,,
2000,2000,2000,0.208864,2000,,,
2000,2000,2000,0.208864,2000,,,
2000,2000,2000,0.193876,1000,,,
2000,2000,2000,0.208864,2000,,,
2000,2000,3000,0.168173,0,,,
2000,2000,2000,0.739354,4000,,,
2000,2000,2000,0.208864,2000,,,
2000,2000,2000,0.409424,2000,,,
2000,2000,3000,0.208864,0,,,
2000,2000,2000,0.208864,2000,,,
2000,2000,2000,0.208864,2000,,,
2000,2000,2000,0.208864,2000,,,
2000,2000,2000,0.508244,2000,,,
2000,2000,2000,0.835648,4000,,,
2000,2000,2000,0.208864,2000,,,
2000,2000,2000,0.217296,1000,,,
2000,2000,2000,0.208864,2000,,,
2000,2000,2000,0.208864,2000,,,
2000,2000,2000,0.412985,2000,,,
2000,2000,2000,0.208864,2000,,,
2000,2000,2000,0.376208,1000,,,
2000,2000,2000,0.208864,2000,,,
2000,2000,2000,0.217232,2000,,,
2000,2000,2000,0.929236,3000,,,
2000,2000,2000,0.68955,4000,,,
2000,2000,2000,0.208864,1000,,,
2000,2000,2000,0.786071,3000,,,
2000,2000,2000,0.208864,2000,,,
2000,2000,2000,0.208864,2000,,,
2000,2000,2000,0.208864,2000,,,
2000,2000,2000,0.208864,2000,,,
2000,2000,3000,0.093965,0,,,
2000,2000,3000,0.456745,0,,,
2000,2000,2000,0.208864,2000,,,
2000,2000,2000,0.208864,2000,,,
2000,2000,2000,0.408864,1000,,,
2000,2000,2000,0.446657,1000,,,
2000,2000,2000,0.208864,1000,,,
2000,2000,2000,0.428434,2000,,,
2000,2000,3000,0.274874,0,,,
2000,2000,2000,0.835648,4000,,,
2000,2000,2000,0.449925,2000,,,
2000,2000,2000,0.208864,2000,,,
2000,2000,2000,0.208864,2000,,,
2000,2000,2000,0.208864,2000,,,
2000,2000,2000,0.12339,1000,,,
2000,2000,2000,0.172961,1000,,,
2000,2000,2000,0.40936,3000,,,
2000,2000,2000,0.426299,3000,,,
2000,2000,2000,0.208864,2000,,,
2000,2000,2000,0.62672,3000,,,
2000,2000,2000,0.208864,2000,,,
2000,2000,2000,0.208864,2000,,,
2000,2000,2000,0.208864,2000,,,
2000,2000,3000,0.208864,0,,,
2000,2000,2000,0.208864,2000,,,
2000,2000,2000,0.62672,3000,,,
2000,2000,2000,0.9241,2000,,,
2000,2000,2000,0.777943,3000,,,
2000,2000,2000,0.208864,2000,,,
2000,2000,2000,0.154107,1000,,,
2000,2000,2000,0.208864,2000,,,
2000,2000,2000,0.208864,2000,,,
2000,2000,2000,0.822808,2000,,,
2000,2000,3000,0.184809,0,,,
2000,2000,2000,0.208864,2000,,,
2000,2000,2000,0.225792,2000,,,
2000,2000,2000,0.18605,1000,,,
2000,2000,2000,0.208864,1000,,,
2000,2000,2000,0.208864,2000,,,
2000,2000,2000,0.47221,2000,,,
2000,2000,2000,0.208864,2000,,,
2000,2000,2000,0.208864,2000,,,
2000,2000,2000,0.208864,2000,,,
2000,2000,2000,0.208864,2000,,,
2000,2000,2000,0.157497,1000,,,
2000,2000,2000,0.208864,1000,,,
2000,2000,2000,0.726143,3000,,,
2000,2000,2000,0.882112,5000,,,
2000,2000,2000,0.208864,1000,,,
2000,2000,2000,0.490732,2000,,,
2000,2000,2000,0.208864,2000,,,
2000,2000,2000,0.208864,2000,,,
2000,2000,2000,0.794848,6000,,,
2000,2000,2000,0.208864,2000,,,
2000,2000,3000,0.208864,0,,,
2000,2000,2000,0.208864,2000,,,
2000,2000,2000,0.208864,2000,,,
2000,2000,2000,0.208864,2000,,,
2000,2000,2000,0.735012,3000,,,
2000,2000,2000,0.931967,3000,,,
2000,2000,2000,0.208864,2000,,,
2000,2000,2000,0.40936,2000,,,
2000,2000,2000,0.942653,5000,,,
2000,2000,3000,0.179381,0,,,
2000,2000,2000,0.208864,2000,,,
2000,2000,2000,0.208864,2000,,,
2000,2000,2000,0.208864,1000,,,
2000,2000,2000,0.208864,2000,,,
2000,2000,2000,0.208864,2000,,,
2000,2000,2000,0.208864,2000,,,
2000,2000,2000,0.208864,2000,,,
2000,2000,2000,0.225728,3000,,,
2000,2000,2000,0.208864,2000,,,
2000,2000,2000,0.208864,2000,,,
2000,2000,2000,0.208864,2000,,,
2000,2000,3000,0.297837,0,,,
2000,2000,2000,0.208864,2000,,,
2000,2000,2000,0.60936,2000,,,
2000,2000,2000,0.208864,1000,,,
2000,2000,2000,0.409424,2000,,,
2000,2000,2000,0.409296,3000,,,
2000,2000,2000,0.208864,2000,,,
2000,2000,2000,0.62672,3000,,,
2000,2000,3000,0.411308,0,,,
2000,2000,2000,0.94736,2000,,,
2000,2000,2000,0.46058,1000,,,
2000,2000,2000,0.774493,4000,,,
2000,2000,2000,0.417792,3000,,,
2000,2000,2000,0.408864,1000,,,
2000,2000,2000,0.208864,2000,,,
2000,2000,2000,0.40936,2000,,,
2000,2000,2000,0.208864,2000,,,
2000,2000,2000,0.40936,2000,,,
2000,2000,2000,0.208864,2000,,,
2000,2000,2000,0.208864,2000,,,
2000,2000,2000,0.208864,2000,,,
2000,2000,2000,0.62672,3000,,,
2000,2000,2000,0.483917,3000,,,
2000,2000,2000,0.417792,5000,,,
2000,2000,3000,0.164238,0,,,
2000,2000,2000,0.62672,5000,,,
2000,2000,2000,0.827152,4000,,,
2000,2000,2000,0.908146,5000,,,
2000,2000,2000,0.208864,2000,,,
2000,2000,2000,0.92037,2000,,,
2000,2000,2000,0.518843,2000,,,
2000,2000,2000,0.891948,5000,,,
2000,2000,2000,0.208864,2000,,,
2000,2000,2000,0.208864,2000,,,
2000,2000,2000,0.216446,1000,,,
2000,2000,2000,0.425728,2000,,,
2000,2000,2000,0.156078,1000,,,
2000,2000,3000,0.113352,0,,,
2000,2000,2000,0.417792,3000,,,
2000,2000,3000,0.304767,0,,,
2000,2000,2000,0.40936,2000,,,
2000,2000,2000,0.94559,5000,,,
2000,2000,2000,0.781713,4000,,,
2000,2000,2000,0.40936,3000,,,
2000,2000,2000,0.735375,2000,,,
2000,2000,2000,0.208864,2000,,,
2000,2000,2000,0.328783,1000,,,
2000,2000,2000,0.425728,2000,,,
2000,2000,2000,0.208864,1000,,,
2000,2000,2000,0.208864,2000,,,
2000,2000,2000,0.425792,2000,,,
2000,2000,2000,0.409424,2000,,,
2000,2000,2000,0.208864,2000,,,
2000,2000,2000,0.390771,1000,,,
2000,2000,2000,0.208864,2000,,,
2000,2000,2000,0.14811,1000,,,
2000,2000,2000,0.208864,2000,,,
2000,2000,3000,0.484519,0,,,
2000,2000,2000,0.208864,2000,,,
2000,2000,2000,0.409424,2000,,,
2000,2000,2000,0.208864,2000,,,
2000,2000,2000,0.217296,1000,,,
2000,2000,2000,0.208864,1000,,,
